RSelenium Memo | 6W3N Site
…
https://www.google.com/imgres?imgurl=https%3A%2F%2Fdetia-degesch.de%2Fwp-content%2Fuploads%2F2018%2F01%2Fspeisebohnenkaefer_1900x1000.jpg&imgrefurl=https%3A%2F%2Fdetia-degesch.de%2Fpest%2Fdried-bean-weevil%2F%3Flang%3Den&tbnid=TlH1dpAQiCOiFM&vet=12ahUKEwiUu8bKk7bpAhUrIqYKHXQVAgsQMygAegUIARDUAQ..i&docid=GqOZi-WcSv4tSM&w=1900&h=1000&q=beanweevil&ved=2ahUKEwiUu8bKk7bpAhUrIqYKHXQVAgsQMygAegUIARDUAQ

と一見どこに飛ぶのかわかりません。
実はこの文字列の中に画像のURLが隠れています。

それを取得するために、先ほども出てきた{httr}のparse_url()で画像のURLを探します。
返ってきた中身の$query$imgurlに欲しかった画像のURLが入ります。

ここまでの操作を画像1枚ずつ行っていくためにfor文を書いています。(foreachは個人の趣味です。)

100件全てを実行するのにはそこそこ時間がかかります。体感では10分くらい…です。

100件取った中身を見てみます。

# A tibble: 100 x 2
      id url
   <int> <chr>
 1     1 https://upload.wikimedia.org/wikipedia/commons/thumb/a/a6/Starr_040201…
 2     2 https://tackle.com.ng/wp-content/uploads/2018/08/Bean-weevil1.jpg
 3     3 https://detia-degesch.de/wp-content/uploads/2018/01/speisebohnenkaefer…
 4     4 https://www.waterwereld.nu/images/boon7.JPG
 5     5 https://cdn-prod.servicemaster.com/-/media/Feature/Terminix/TypesOfPes…
 6     6 https://www.ams.usda.gov/sites/default/files/media/driedbeanbeetle.jpg
 7     7 http://www.organicgardeninfo.com/images/bean-weevil.jpg
 8     8 http://www.organicgardeninfo.com/images/bean-weevil.jpg
 9     9 https://cdn.orkin.com/images/bean_weevil/bean-weevil-illustration_1500…
10    10 https://candidegardening.com/img/27dfabdd-dedd-4a23-a960-860cf9af7ba6/…
# … with 90 more rows
…
